<svg xmlns="http://www.w3.org/2000/svg" width="450.118" height="438.588" viewBox="0 0 450.118 438.588">
  <g id="Group_2953" data-name="Group 2953" transform="translate(-24.941 -47.981)">
    <path id="Path_1318" data-name="Path 1318" d="M408.617,264.027c88.181,50.911,88.646,133.449,1.044,184.358s-230.1,50.913-318.284,0S2.737,314.94,90.345,264.028,320.442,213.118,408.617,264.027Z" fill="#f0f4fc"/>
    <g id="Group_2862" data-name="Group 2862" opacity="0.1">
      <path id="Path_1321" data-name="Path 1321" d="M74.709,348.374l7.372,3.986a4.787,4.787,0,0,0,4.677-.07l103.877-60.246a2.393,2.393,0,0,0-.063-4.175l-9.731-5.26L74.646,344.2A2.392,2.392,0,0,0,74.709,348.374Z"/>
    </g>
    <path id="Path_1322" data-name="Path 1322" d="M247.326,419.587c14.745,8.514,14.823,22.315.174,30.828s-38.477,8.514-53.223,0-14.822-22.314-.172-30.827S232.581,411.075,247.326,419.587Z" fill="#dce3f1" opacity="0.53"/>
    <path id="Path_1323" data-name="Path 1323" d="M333.594,390.016c14.746,8.513,14.824,22.315.175,30.828s-38.477,8.514-53.223,0-14.822-22.314-.172-30.828S318.85,381.5,333.594,390.016Z" fill="#dce3f1" opacity="0.53"/>
    <path id="Path_1324" data-name="Path 1324" d="M423.985,387.272c14.745,8.514,14.823,22.315.174,30.828s-38.477,8.514-53.222,0-14.822-22.315-.173-30.828S409.24,378.76,423.985,387.272Z" fill="#dce3f1" opacity="0.53"/>
    <path id="Path_1325" data-name="Path 1325" d="M380.878,322.119c14.746,8.513,14.823,22.315.175,30.828s-38.477,8.513-53.223,0-14.822-22.315-.172-30.828S366.134,313.606,380.878,322.119Z" fill="#dce3f1" opacity="0.53"/>
    <g id="Group_2865" data-name="Group 2865">
      <path id="Path_1326" data-name="Path 1326" d="M440.591,321.147l-4.777-3.92c-.29-7.529-.586-15.46.665-22.891s4.17-14.782,9.485-20.123c2.227-2.237,4.988-4.145,8.125-4.5s6.635,1.223,7.716,4.189c1.13,3.1-.576,6.472-2.391,9.23-3.871,5.882-8.491,11.248-12.283,17.18A41.857,41.857,0,0,0,440.591,321.147Z" fill="#85c868"/>
      <path id="Path_1327" data-name="Path 1327" d="M440.591,322.179l4.777,3.919c3.53-7.451,8.4-14.358,15.123-19.136,2.3-1.636,4.768-3.092,6.7-5.154s3.274-4.917,2.714-7.684c-.719-3.55-4.488-5.9-8.11-5.916s-7.018,1.818-9.824,4.108C443.349,299.348,438.42,311.27,440.591,322.179Z" fill="#ba68c8"/>
      <path id="Path_1328" data-name="Path 1328" d="M440.591,322.179l4.777,3.919c3.53-7.451,8.4-14.358,15.123-19.136,2.3-1.636,4.768-3.092,6.7-5.154s3.274-4.917,2.714-7.684c-.719-3.55-4.488-5.9-8.11-5.916s-7.018,1.818-9.824,4.108C443.349,299.348,438.42,311.27,440.591,322.179Z" fill="#85c868"/>
      <g id="Group_2863" data-name="Group 2863">
        <path id="Path_1329" data-name="Path 1329" d="M437.9,319.352h-.008a.415.415,0,0,1-.406-.421c.2-11.165,2.7-31.789,17.3-44.466a.414.414,0,1,1,.543.625c-6.162,5.351-16.566,18.164-17.014,43.856A.414.414,0,0,1,437.9,319.352Z" fill="#fff"/>
      </g>
      <g id="Group_2864" data-name="Group 2864">
        <path id="Path_1330" data-name="Path 1330" d="M442.9,324.49l-.039,0a.413.413,0,0,1-.372-.452c.977-10.038,5.357-23.861,20.674-32.713a.413.413,0,1,1,.414.715c-15.013,8.677-19.307,22.234-20.265,32.078A.414.414,0,0,1,442.9,324.49Z" fill="#fff"/>
      </g>
    </g>
    <g id="Group_2868" data-name="Group 2868">
      <path id="Path_1331" data-name="Path 1331" d="M56.89,295.567c-3.291-2.767-6.941-5.106-10.044-8.081-2.118-2.03-4.068-4.64-3.923-7.569a7.321,7.321,0,0,1,4.7-6.129,11.127,11.127,0,0,1,7.975.2,23.961,23.961,0,0,1,6.855,4.359A58.471,58.471,0,0,1,82.6,316.93a8.744,8.744,0,0,1-.582,5,4.8,4.8,0,0,1-4.566,2.442c-4.687-.443-5.277-6.54-6.694-9.917a50.354,50.354,0,0,0-7.805-12.808A49.232,49.232,0,0,0,56.89,295.567Z" fill="#85c868"/>
      <g id="Group_2866" data-name="Group 2866">
        <path id="Path_1332" data-name="Path 1332" d="M78.28,319.582a.4.4,0,0,1-.384-.3c-1.709-7.047-8.8-30.855-28.227-41.329a.4.4,0,0,1,.375-.7c19.718,10.63,26.891,34.711,28.62,41.838a.4.4,0,0,1-.29.478A.435.435,0,0,1,78.28,319.582Z" fill="#f0f0f0"/>
      </g>
      <g id="Group_2867" data-name="Group 2867">
        <path id="Path_1333" data-name="Path 1333" d="M81.836,329.437a12.1,12.1,0,0,1-3.948,8.6,15.561,15.561,0,0,1-7.945,2.993,36.688,36.688,0,0,1-8.729-.336c-1.429-.187-3.04-.5-3.509-2.136a3.016,3.016,0,0,1,.488-2.525,9.78,9.78,0,0,1,.718-.915.874.874,0,0,0-.76-1.45,20.249,20.249,0,0,1-2.435.175,10.686,10.686,0,0,1-5.434-1.275,8.457,8.457,0,0,1-2.977-2.96c-.624-1.037-1.012-2.416-.331-3.416a3.718,3.718,0,0,1,1.69-1.168q.855-.367,1.723-.683a.808.808,0,0,0-.114-1.552l-2.729-.554a4.829,4.829,0,0,1-2.148-.812,4.254,4.254,0,0,1-1.169-3.378c0-1.64.243-3.27.307-4.908a10.207,10.207,0,0,0-.774-4.807,40.917,40.917,0,0,1,14.312-1.838,10.35,10.35,0,0,1,4.187.93c1.82.948,2.6,2.756,2.837,4.835a.373.373,0,0,0,.725.057l1.027-3.289a1.948,1.948,0,0,1,2.347-1.294,11.805,11.805,0,0,1,4.256,2.173,6.512,6.512,0,0,1,2.505,4.406,41.924,41.924,0,0,1,.188,7.155.654.654,0,0,0,1.137.481l.066-.071a2.211,2.211,0,0,1,1.432-.741c1.459-.1,2.107,1.268,2.443,2.478A24.278,24.278,0,0,1,81.836,329.437Z" fill="#ba68c8"/>
        <path id="Path_1334" data-name="Path 1334" d="M81.836,329.437a12.1,12.1,0,0,1-3.948,8.6,15.561,15.561,0,0,1-7.945,2.993,36.688,36.688,0,0,1-8.729-.336c-1.429-.187-3.04-.5-3.509-2.136a3.016,3.016,0,0,1,.488-2.525,9.78,9.78,0,0,1,.718-.915.874.874,0,0,0-.76-1.45,20.249,20.249,0,0,1-2.435.175,10.686,10.686,0,0,1-5.434-1.275,8.457,8.457,0,0,1-2.977-2.96c-.624-1.037-1.012-2.416-.331-3.416a3.718,3.718,0,0,1,1.69-1.168q.855-.367,1.723-.683a.808.808,0,0,0-.114-1.552l-2.729-.554a4.829,4.829,0,0,1-2.148-.812,4.254,4.254,0,0,1-1.169-3.378c0-1.64.243-3.27.307-4.908a10.207,10.207,0,0,0-.774-4.807,40.917,40.917,0,0,1,14.312-1.838,10.35,10.35,0,0,1,4.187.93c1.82.948,2.6,2.756,2.837,4.835a.373.373,0,0,0,.725.057l1.027-3.289a1.948,1.948,0,0,1,2.347-1.294,11.805,11.805,0,0,1,4.256,2.173,6.512,6.512,0,0,1,2.505,4.406,41.924,41.924,0,0,1,.188,7.155.654.654,0,0,0,1.137.481l.066-.071a2.211,2.211,0,0,1,1.432-.741c1.459-.1,2.107,1.268,2.443,2.478A24.278,24.278,0,0,1,81.836,329.437Z" fill="#5b9a40"/>
        <path id="Path_1335" data-name="Path 1335" d="M75.751,338.053a58.333,58.333,0,0,0-5.968-10.263.384.384,0,0,0-.19-.263c-.126-.174-.25-.347-.379-.523A36.274,36.274,0,0,1,70.5,313.656a.395.395,0,1,0-.747-.254,36.788,36.788,0,0,0-1.4,12.449c-4.486-5.816-11.1-12.35-20.106-16.3a.395.395,0,1,0-.318.723c9.288,4.077,15.995,10.943,20.415,16.866a24.177,24.177,0,0,0-13.824.829.395.395,0,0,0,.147.761.39.39,0,0,0,.148-.029c.071-.028,7.2-2.828,14.295-.512a57.6,57.6,0,0,1,5.918,10.165.395.395,0,0,0,.731-.3Z" fill="#f0f0f0"/>
      </g>
    </g>
    <g id="Group_2876" data-name="Group 2876">
      <g id="Group_2875" data-name="Group 2875">
        <path id="Path_1336" data-name="Path 1336" d="M189.744,67.677l.008-.007c-.709-2.487-5.758-7.215-10.783-7.116a4.422,4.422,0,0,0-1.411.277l-97.6,55.529a9.467,9.467,0,0,0-4.72,8.115V335.6c0,5.378,6.2,10.51,12.024,8.041.015-.006.024-.021.039-.027a2.378,2.378,0,0,0,.374-.151l97.607-55.622a9.336,9.336,0,0,0,4.714-8.111V68.694A2.294,2.294,0,0,0,189.744,67.677Z" fill="#37474f"/>
        <path id="Path_1337" data-name="Path 1337" d="M88.852,146.79a4.668,4.668,0,0,1,2.36-4.058l90.625-51.559a2.334,2.334,0,0,1,3.488,2.029v170.24a4.682,4.682,0,0,1-2.358,4.057L92.342,319.141a2.334,2.334,0,0,1-3.49-2.028Z" fill="#37474f"/>
        <path id="Path_1338" data-name="Path 1338" d="M75.236,124.475V335.6c0,5.378,6.2,10.51,12.024,8.041.015-.006.024-.021.039-.027a2.322,2.322,0,0,1-3.116-2.179V130.31a9.315,9.315,0,0,1,1.577-5.156L76.2,120.38A9.307,9.307,0,0,0,75.236,124.475Z" fill="#263238"/>
        <path id="Path_1339" data-name="Path 1339" d="M178.969,60.554a4.422,4.422,0,0,0-1.411.277l-97.6,55.529a9.317,9.317,0,0,0-3.752,4.02l9.556,4.774a9.31,9.31,0,0,1,3.143-2.959l97.6-55.529a2.324,2.324,0,0,1,3.239,1.011l.008-.007C189.043,65.183,183.994,60.455,178.969,60.554Z" fill="#455a64"/>
        <g id="Group_2874" data-name="Group 2874">
          <g id="Group_2871" data-name="Group 2871">
            <g id="Group_2869" data-name="Group 2869">
              <path id="Path_1340" data-name="Path 1340" d="M149.118,101.528c.685-.395,1.253-.089,1.256.7a2.77,2.77,0,0,1-1.248,2.161l-19.149,11.056c-.686.4-1.239.063-1.241-.725a2.709,2.709,0,0,1,1.233-2.135Z" fill="#263238"/>
            </g>
            <g id="Group_2870" data-name="Group 2870">
              <path id="Path_1341" data-name="Path 1341" d="M125.051,115.423c.686-.395,1.239-.08,1.241.707a2.74,2.74,0,0,1-1.233,2.153c-.685.4-1.253.072-1.256-.716A2.743,2.743,0,0,1,125.051,115.423Z" fill="#263238"/>
            </g>
          </g>
          <g id="Group_2872" data-name="Group 2872">
            <path id="Path_1342" data-name="Path 1342" d="M137.308,99.92c1.37-.79,2.475-.161,2.479,1.413a5.468,5.468,0,0,1-2.463,4.3c-1.369.791-2.5.144-2.508-1.43A5.474,5.474,0,0,1,137.308,99.92Z" fill="#263238"/>
          </g>
          <g id="Group_2873" data-name="Group 2873">
            <path id="Path_1343" data-name="Path 1343" d="M137.315,298.673c2.79-1.61,5.041-.328,5.05,2.877a11.147,11.147,0,0,1-5.017,8.759c-2.789,1.611-5.1.293-5.11-2.912A11.15,11.15,0,0,1,137.315,298.673Z" fill="#263238"/>
          </g>
        </g>
      </g>
    </g>
    <g id="Group_2884" data-name="Group 2884">
      <g id="Group_2877" data-name="Group 2877">
        <path id="Path_1344" data-name="Path 1344" d="M151.828,184.79l3.258-1.822a16.754,16.754,0,0,1,19.585,2.354l27.254,25.339s10.319-18.792,12.213-24.974c.6-1.956-.551-4.058-1.114-6.026a12.629,12.629,0,0,1-.657-6.04,15.993,15.993,0,0,0-.605-7.882,1.411,1.411,0,0,1,1.426-1.823c.1.005.2.012.3.021a3.226,3.226,0,0,1,1.985.81,4.453,4.453,0,0,1,1.013,1.921,28.626,28.626,0,0,1,1.165,5.509,26.1,26.1,0,0,0,2.216-11.356,16.281,16.281,0,0,1,.074-4.467,3.879,3.879,0,0,1,2.866-3.1,10.574,10.574,0,0,1,1.615,3.522,3.4,3.4,0,0,1,2.746.066,3.046,3.046,0,0,1,1.427,2.169c2.189.154,4.077,2.1,4.968,4.1a13.774,13.774,0,0,1,.829,6.466,36.911,36.911,0,0,1-7.4,19.885c-3.532,13.407-6.67,28.511-11.685,40.256a10.018,10.018,0,0,1-14.76,4.324,429.2,429.2,0,0,1-35.359-26.323Z" fill="#ffbea7"/>
        <path id="Path_1345" data-name="Path 1345" d="M151.828,184.79l3.258-1.822a16.754,16.754,0,0,1,19.585,2.354l21.466,19.958c-2.138,10.914-12.406,18.491-12.406,18.491L165.187,207.72Z" fill="#e0e0e0"/>
        <path id="Path_1346" data-name="Path 1346" d="M199.184,223.223c-.1-5.434,1.047-8.524,2.741-12.562l-1.427-1.327C199.18,211.028,196.611,215.58,199.184,223.223Z" opacity="0.2"/>
        <path id="Path_1347" data-name="Path 1347" d="M220.218,186.106a8.3,8.3,0,0,0-.231-11.451,6.248,6.248,0,0,1,3.845,5.4A7.012,7.012,0,0,1,220.218,186.106Z" opacity="0.2"/>
      </g>
      <g id="Group_2878" data-name="Group 2878">
        <path id="Path_1348" data-name="Path 1348" d="M173.38,262.026l-58.4.957s-3.336,18.193-4.283,45.7l62.524-35.628Z" fill="#455a64"/>
      </g>
      <g id="Group_2879" data-name="Group 2879">
        <path id="Path_1349" data-name="Path 1349" d="M152.267,180.837l5.554.587a13.7,13.7,0,0,1,10.063,6.16c5.715,8.816,8.374,22.308,6.836,36.911a322.923,322.923,0,0,0-1.34,37.531c-24.127,17.616-54.573,4.787-58.4.957l1.79-22.3a15.439,15.439,0,0,0-1.221-7.343c-2.277-5.293-6.341-15.707-6.888-23.777a42.207,42.207,0,0,1,4.4-20.776l21.159-7.946Z" fill="#f0f0f0"/>
      </g>
      <g id="Group_2882" data-name="Group 2882">
        <g id="Group_2880" data-name="Group 2880">
          <path id="Path_1350" data-name="Path 1350" d="M134.135,166.818v14.438a6.722,6.722,0,0,0,2.2,5.032,19.305,19.305,0,0,0,13.9,4.781,4.864,4.864,0,0,0,2.864-.883,3.774,3.774,0,0,0,.921-3.928,7.305,7.305,0,0,0-.912-1.912,7.6,7.6,0,0,1-1.277-4.113V166.818Z" fill="#ffbea7"/>
          <path id="Path_1351" data-name="Path 1351" d="M135.18,166.914l16.648-.1v12.269c-3.752-.726-7.41-1.69-10.527-3.851A16.261,16.261,0,0,1,135.18,166.914Z" fill="#da9881"/>
        </g>
        <g id="Group_2881" data-name="Group 2881">
          <path id="Path_1352" data-name="Path 1352" d="M167.4,142.389a10.1,10.1,0,0,0,9.172-5.175,1.387,1.387,0,0,0-1.5-2,11.283,11.283,0,0,1-3.878.042,18.35,18.35,0,0,0,3.608-13.681,1.734,1.734,0,0,0-2.465-1.3,33.89,33.89,0,0,1-17.184,3.472c-3.157-.224-6.27-.892-9.426-1.134a17.461,17.461,0,0,0-9.269,1.412c-2.821,1.437-5.07,4.3-5.065,7.466a4.325,4.325,0,0,0-3.133-1.811,4.766,4.766,0,0,0-3.654,1.081c1.826,1,3.609,2.014,5.435,3.015-1.871-.668-4.226.794-5.157,2.548a12.619,12.619,0,0,0-1.005,5.814,45.609,45.609,0,0,0,.356,7.9,15.262,15.262,0,0,0,3,7.234,11.458,11.458,0,0,0,5.436,3.683,14.83,14.83,0,0,0,8.828-.281,35.525,35.525,0,0,0,8-4A125.754,125.754,0,0,0,167.4,142.389Z" fill="#263238"/>
          <path id="Path_1353" data-name="Path 1353" d="M167.8,137.126a60.751,60.751,0,0,1-3.485,32.454c-.952,2.378-2.184,4.84-4.408,6.11-2.332,1.331-5.217,1.053-7.873.653a40.109,40.109,0,0,1-12.431-3.5c-3.847-1.973-7.229-5.173-8.6-9.272a7.444,7.444,0,0,1-7.535-2.954,14.117,14.117,0,0,1-2.443-8.231c-.04-1.862.343-4.061,2.016-4.881,1.556-.762,3.424.093,4.77,1.184a14.167,14.167,0,0,1,4.644,6.97c1.231-4.536,3.146-8.913,4.377-13.45.484-1.783,1.082-3.728,2.639-4.724,1.9-1.219,4.386-.519,6.581.024A43.231,43.231,0,0,0,167.8,137.126Z" fill="#ffbea7"/>
          <path id="Path_1354" data-name="Path 1354" d="M154.577,150.9l5.3,8.93-6.325,1.188Z" fill="#da9881"/>
          <path id="Path_1355" data-name="Path 1355" d="M147.461,164.091l4.806,2.337a3.142,3.142,0,0,1-3.644,1.036C147.44,166.933,147.11,165.34,147.461,164.091Z" fill="#733d3c"/>
          <path id="Path_1356" data-name="Path 1356" d="M147.461,164.091l4.806,2.337a3.142,3.142,0,0,1-3.644,1.036C147.44,166.933,147.11,165.34,147.461,164.091Z" opacity="0.3"/>
          <path id="Path_1357" data-name="Path 1357" d="M150.292,167.622a2.9,2.9,0,0,1-1.669-.158,2.557,2.557,0,0,1-1.285-2.533,2.915,2.915,0,0,1,2.954,2.691Z" fill="#502b2a"/>
          <path id="Path_1358" data-name="Path 1358" d="M145.418,151.252a1.817,1.817,0,1,0,1.989-1.626A1.815,1.815,0,0,0,145.418,151.252Z" fill="#263238"/>
          <path id="Path_1359" data-name="Path 1359" d="M160.651,152.2a1.817,1.817,0,1,0,1.99-1.626A1.816,1.816,0,0,0,160.651,152.2Z" fill="#263238"/>
          <path id="Path_1360" data-name="Path 1360" d="M163.135,145.18l3.727,3.174a2.589,2.589,0,0,0-.5-2.915A3.068,3.068,0,0,0,163.135,145.18Z" fill="#263238"/>
          <path id="Path_1361" data-name="Path 1361" d="M147.68,143.4l-4.286,2.366a2.59,2.59,0,0,1,1.069-2.757A3.069,3.069,0,0,1,147.68,143.4Z" fill="#263238"/>
        </g>
      </g>
      <g id="Group_2883" data-name="Group 2883">
        <path id="Path_1362" data-name="Path 1362" d="M110.582,235.957,105,256.395l21.662,18.156a8.193,8.193,0,0,0,5.516,1.909,26.6,26.6,0,0,1,6.619.38c1.7.383,3.347.942,5.04,1.334a15.31,15.31,0,0,0,3.634.45,1.466,1.466,0,0,1,1.409,2.056,3.161,3.161,0,0,1-.733.977A5.9,5.9,0,0,1,145,282.891a14.329,14.329,0,0,1-5.406-.281c1.563,2.042,4.227,3.325,6.665,4.141s4.986,1.277,7.411,2.135a4.653,4.653,0,0,1,2.378,1.514,1.837,1.837,0,0,1-.3,2.543c-1.04.642-2.457-.306-3.594.143a4.733,4.733,0,0,1-.031,1.984,2.84,2.84,0,0,1-1.209,1.615,1.992,1.992,0,0,1-1.969.066,7.122,7.122,0,0,1-4.581,3.1,13.929,13.929,0,0,1-5.627-.068c-7.719-1.427-12.607-8.149-18.659-13.147-.833-.688-22.17-12.581-33.091-18.654a9.354,9.354,0,0,1-4.51-10.513l6.97-27.09Z" fill="#ffbea7"/>
        <path id="Path_1363" data-name="Path 1363" d="M91.689,255.946c2.343-1.1,9.82-1.994,13.31.449l.573-2.1A12.284,12.284,0,0,0,91.689,255.946Z" opacity="0.2"/>
        <path id="Path_1364" data-name="Path 1364" d="M113.273,188.7l-3.063.871a20,20,0,0,0-13.473,12.806l-9.783,28.794c8.823,9.271,24.674,6.43,24.674,6.43l3.141-14.655C125.835,203.656,115.666,191.842,113.273,188.7Z" fill="#e0e0e0"/>
      </g>
    </g>
    <g id="Group_2892" data-name="Group 2892">
      <g id="Group_2885" data-name="Group 2885">
        <path id="Path_1365" data-name="Path 1365" d="M377.268,333.395c-.788-2.534-1.65-5.126-1.47-7.774-.175.046-.352.084-.528.125a30.725,30.725,0,0,1-6.368.664c-.224,0-.449.009-.673.012.573,3.15.163,6.382-.038,9.578s-.166,6.53,1.209,9.422a4.248,4.248,0,0,0,1.557,1.923,3.215,3.215,0,0,0,2.527.228,5.593,5.593,0,0,0,2.2-1.363,9.039,9.039,0,0,0,2.665-5C378.789,338.589,378.057,335.929,377.268,333.395Z" fill="#f28f8f"/>
        <path id="Path_1366" data-name="Path 1366" d="M377.268,333.395c-.788-2.534-1.65-5.126-1.47-7.774-.175.046-.352.084-.528.125q.311,4.553.219,9.121a7.387,7.387,0,0,1-.406,2.7,2.632,2.632,0,0,1-1.993,1.694,2.663,2.663,0,0,1-2.469-1.484,7.842,7.842,0,0,1-.74-2.943q-.489-4.211-.979-8.421c-.224,0-.449.009-.673.012.573,3.15.163,6.382-.038,9.578s-.166,6.53,1.209,9.422a4.248,4.248,0,0,0,1.557,1.923,3.215,3.215,0,0,0,2.527.228,5.593,5.593,0,0,0,2.2-1.363,9.039,9.039,0,0,0,2.665-5C378.789,338.589,378.057,335.929,377.268,333.395Z" fill="#455a64"/>
      </g>
      <g id="Group_2886" data-name="Group 2886">
        <path id="Path_1367" data-name="Path 1367" d="M348.03,322.017A12.785,12.785,0,0,0,347,319.625c-.108-.2-.216-.406-.325-.608-2.709.481-5.671.649-8.276,1.533a52.683,52.683,0,0,1-3.055,7.977,19.99,19.99,0,0,1-3.154,4.57,14.324,14.324,0,0,1-2.236,1.958c-.9.632-1.99,1.3-2.139,2.391a2.346,2.346,0,0,0,1.3,2.225,6.134,6.134,0,0,0,2.649.591,16.813,16.813,0,0,0,5.827-.5,8.08,8.08,0,0,0,4.65-3.376,10.344,10.344,0,0,0,1.039-2.623c.26-.937.475-1.893.8-2.8a7.664,7.664,0,0,1,.817-1.672c.9-1.35,2.351-2.338,3.012-3.8.035-.078.078-.152.109-.234A5.192,5.192,0,0,0,348.03,322.017Z" fill="#f28f8f"/>
        <path id="Path_1368" data-name="Path 1368" d="M347.91,325.493c-.661,1.466-2.11,2.454-3.012,3.8a7.664,7.664,0,0,0-.817,1.672c-.325.9-.54,1.859-.8,2.8l1.323.34a7.788,7.788,0,0,0,3.291-2.52C347.959,329.178,347.931,326.7,347.91,325.493Z" fill="#37474f"/>
        <path id="Path_1369" data-name="Path 1369" d="M343.281,333.765l1.323.34-.523-3.136C343.756,331.872,343.541,332.828,343.281,333.765Z" fill="#263238"/>
        <path id="Path_1370" data-name="Path 1370" d="M348.03,322.017A12.785,12.785,0,0,0,347,319.625a6.9,6.9,0,0,1-1.153,3.612c-.9,1.445-2.093,2.689-2.953,4.155-1.047,1.785-1.59,3.886-2.966,5.432a6.5,6.5,0,0,1-5.422,2.111,2.869,2.869,0,0,1-1.987-.892,1.571,1.571,0,0,1-.329-.946,14.324,14.324,0,0,1-2.236,1.958c-.9.632-1.99,1.3-2.139,2.391a2.347,2.347,0,0,0,1.3,2.225,6.134,6.134,0,0,0,2.649.591,16.813,16.813,0,0,0,5.827-.5,8.08,8.08,0,0,0,4.65-3.376,10.344,10.344,0,0,0,1.039-2.623c.26-.937.475-1.893.8-2.8a7.664,7.664,0,0,1,.817-1.672c.9-1.35,2.351-2.338,3.012-3.8.035-.078.078-.152.109-.234A5.192,5.192,0,0,0,348.03,322.017Z" fill="#455a64"/>
      </g>
      <path id="Path_1371" data-name="Path 1371" d="M338.354,179.126c.355.83,1.33,1.225,1.8,2a1.929,1.929,0,1,1-3.38,1.851,5.479,5.479,0,0,0-.011,2.209,2.149,2.149,0,0,0,1.379,1.614,3.912,3.912,0,0,0,2.468,6.64,6.077,6.077,0,0,0,2.691,5.37,8.712,8.712,0,0,0,5.824,1.356,19.069,19.069,0,0,0,5.833-1.712,21.042,21.042,0,0,0,8.863,1.323,8.151,8.151,0,0,0,5.233-2.087c1.324-1.39,1.633-3.867.218-5.164a2.937,2.937,0,0,0,3.01.03,2.557,2.557,0,0,0-.445-4.7,2.238,2.238,0,0,0,1.021-2.022,2.087,2.087,0,0,0-1.426-1.655,1.818,1.818,0,0,1-.494,1.87,1.7,1.7,0,0,1-1.861.086,2.277,2.277,0,0,1-.956-1.608,7.8,7.8,0,0,1,.036-1.924,14.259,14.259,0,0,0-.637-6.573,6.665,6.665,0,0,0-4.757-4.253,10.953,10.953,0,0,0-12.781-7.311,7.265,7.265,0,0,0-5.237,3.886,11.912,11.912,0,0,0-2.9-.245,3.834,3.834,0,0,0-2.607.965,2.338,2.338,0,0,0-.571,2.6c.289.6.908,1.133.76,1.78-.127.555-.759.827-1.064,1.309a1.685,1.685,0,0,0-.033,1.546,5.244,5.244,0,0,0,.928,1.307c.324.373.665.86.483,1.319C339.556,179.413,338.606,179.575,338.354,179.126Z" fill="#263238"/>
      <path id="Path_1372" data-name="Path 1372" d="M341.862,221.984l-.441,6.88c-5.177,21.347-3.635,53.244-3.635,53.244L337.949,321a6.612,6.612,0,0,0,9.214-2c.88-9.566,5.327-24.6,3.993-36.335,1.778-9.25,3.112-22.412,3.112-22.412l4.358,22.767,9.071,43.934c4,1.69,7.56.534,8.716-1.023-.931-24.232-.534-35.885-4.269-47.091,1.156-30.059,2.082-43.659-5.242-53.987v-3.888Z" fill="#ba68c8"/>
      <path id="Path_1373" data-name="Path 1373" d="M341.862,221.984l-.441,6.88c-5.177,21.347-3.635,53.244-3.635,53.244L337.949,321a6.612,6.612,0,0,0,9.214-2c.88-9.566,5.327-24.6,3.993-36.335,1.778-9.25,3.112-22.412,3.112-22.412l4.358,22.767,9.071,43.934c4,1.69,7.56.534,8.716-1.023-.931-24.232-.534-35.885-4.269-47.091,1.156-30.059,2.082-43.659-5.242-53.987v-3.888Z" opacity="0.1"/>
      <path id="Path_1374" data-name="Path 1374" d="M341.862,221.984l-.441,6.88c-5.177,21.347-3.635,53.244-3.635,53.244L337.949,321a6.612,6.612,0,0,0,9.214-2c.88-9.566,5.327-24.6,3.993-36.335,1.778-9.25,3.112-22.412,3.112-22.412l4.358,22.767,9.071,43.934c4,1.69,7.56.534,8.716-1.023-.931-24.232-.534-35.885-4.269-47.091,1.156-30.059,2.082-43.659-5.242-53.987v-3.888Z" fill="#fff" opacity="0.3"/>
      <path id="Path_1375" data-name="Path 1375" d="M344.429,244.322a7.467,7.467,0,0,0,5.432,4.849l2.535,10.508a20.074,20.074,0,0,1,.509,3.279l.4,5.618c.6-4.735.962-8.316.962-8.316l-2.414-12.614A17.023,17.023,0,0,1,344.429,244.322Z" opacity="0.2"/>
      <g id="Group_2890" data-name="Group 2890">
        <path id="Path_1376" data-name="Path 1376" d="M343.042,234.619c-2.358-1.478-4.115-4.366-3.759-7.126,0,0,4.4,2.313,6.377,1.079l-1.014-1.938a12.061,12.061,0,0,1,7.661,2.695,56.631,56.631,0,0,0,12.233-3.547,24.967,24.967,0,0,1,3.537-1.266,6.4,6.4,0,0,1,3.7.1,3.712,3.712,0,0,1,2.4,2.677,3.973,3.973,0,0,1-1.371,3.481,9.76,9.76,0,0,1-3.412,1.841C364.325,234.438,345.4,236.1,343.042,234.619Z" fill="#f28f8f"/>
        <path id="Path_1377" data-name="Path 1377" d="M373.5,200.268a6,6,0,0,0-4.7-3.018l-7.677-.665-2.585-.224v-8.315l-8.984,3.468v4.8h-5.043a8.128,8.128,0,0,0-7.622,5.3l-7.79,21.021,8.694,2.219,2.395-6.533c.04.384.082.767.138,1.14a7.645,7.645,0,0,0,2.462,4.8,9.819,9.819,0,0,0,4.718,1.809,35.094,35.094,0,0,0,12.966-.244,12.669,12.669,0,0,0,5.461-2.29v1.677l8.246,2.077,1.4-17.7A16.323,16.323,0,0,0,373.5,200.268Z" fill="#f28f8f"/>
        <path id="Path_1378" data-name="Path 1378" d="M340.144,213.837c-.052-.031-.1-.071-.149-.1a23.4,23.4,0,0,0-2.284,5.865,7.559,7.559,0,0,0-6.729,1.978,14,14,0,0,0-1.115,1.261l7.927,2.023,2.395-6.532A23.347,23.347,0,0,1,340.144,213.837Z" opacity="0.2"/>
        <path id="Path_1379" data-name="Path 1379" d="M337.96,223.946a5.251,5.251,0,0,0-3.941-3.26,5.6,5.6,0,0,0-4.919,1.955,3.869,3.869,0,0,0-.25,4.1,5.121,5.121,0,0,0,5.835,2.844C336.965,228.978,338.791,226.155,337.96,223.946Z" fill="#f28f8f"/>
        <path id="Path_1380" data-name="Path 1380" d="M337.96,223.946a5.237,5.237,0,0,0-2.356-2.683,5.842,5.842,0,0,0-.64,7.911c.062.08.139.146.205.222C337.21,228.546,338.731,225.993,337.96,223.946Z" opacity="0.2"/>
        <g id="Group_2889" data-name="Group 2889">
          <g id="Group_2888" data-name="Group 2888">
            <g id="Group_2887" data-name="Group 2887" style="isolation: isolate">
              <path id="Path_1381" data-name="Path 1381" d="M348.927,234.9l0-.011v0l0-.018-.007-.032-.01-.031-.011-.031-.013-.031-.014-.031-.016-.032v0l-5.975-11.427-.017-.032-.019-.034-.022-.035-.022-.036-.025-.036-.026-.037-.027-.038-.027-.035-.026-.034-.025-.031-.022-.026-.022-.026-.017-.021-.017-.019-.016-.018-.016-.019-.013-.014-.013-.014-.012-.013-.013-.014-.012-.014-.012-.012-.011-.012-.011-.011-.011-.012-.012-.012-.011-.011-.012-.012-.012-.013-.013-.012-.012-.013-.013-.012-.013-.013-.02-.019-.023-.022-.023-.022c-.028-.027-.058-.053-.087-.08l-.019-.017-.019-.016-.02-.017-.019-.016-.012-.011-.013-.011-.012-.01-.013-.011-.012-.01-.013-.01-.012-.01-.012-.01-.013-.01-.012-.01-.012-.01-.012-.009-.014-.011-.015-.011-.015-.012-.015-.011-.015-.011-.015-.012-.021-.015-.021-.015-.02-.015-.023-.016-.03-.02-.029-.02-.033-.022-.037-.024-.037-.023-.04-.024-.023-.014-6.971-4.024-.016-.01-.041-.022-.039-.021-.038-.019-.038-.018-.036-.016-.038-.016-.036-.013-.038-.013-.038-.011-.025-.006h0l-.011,0a.3.3,0,0,0-.042-.006.275.275,0,0,0-.049,0,.144.144,0,0,0-.106.042l-.848.948c.005-.005.022,0,.029,0-.071.051-.076.164.022.352l5.974,11.426a3.944,3.944,0,0,0,1.33,1.291l6.971,4.024c.359.208.576.215.609.067-.005.022,0,.05-.015.065h0l.848-.948a.111.111,0,0,0,.024-.044.15.15,0,0,0,.006-.038A.192.192,0,0,0,348.927,234.9Zm-15.638-16.181c.02,0,.025-.012.049-.007h0l.024.011A.329.329,0,0,0,333.289,218.715Zm7.992,4.619c.064.056.131.108.191.167h0C341.412,223.442,341.345,223.39,341.281,223.334Zm.434.432c.026.03.06.061.084.091h0C341.775,223.827,341.741,223.8,341.715,223.766Zm6.359,12.084a.55.55,0,0,0-.072-.228.641.641,0,0,1,.075.209v0C348.078,235.84,348.074,235.843,348.074,235.85Z" fill="#455a64"/>
            </g>
          </g>
          <path id="Path_1382" data-name="Path 1382" d="M348.927,234.9l0-.011v0l0-.018-.007-.032-.01-.031-.011-.031-.013-.031-.014-.031-.016-.032v0l-5.975-11.427-.847.948L348,235.622a.641.641,0,0,1,.075.209v0a.15.15,0,0,1-.028.127h0l.848-.948a.111.111,0,0,0,.024-.044.15.15,0,0,0,.006-.038A.192.192,0,0,0,348.927,234.9Z" fill="#fff" opacity="0.15"/>
          <path id="Path_1383" data-name="Path 1383" d="M342.858,223.215l-.019-.034-.022-.035-.022-.036-.025-.036-.026-.037-.027-.038-.027-.035-.026-.034-.025-.031-.022-.026-.022-.026-.017-.021-.017-.019-.016-.018-.016-.019-.013-.014-.013-.014-.012-.013-.013-.014-.012-.014-.012-.012-.011-.012-.011-.011-.011-.012-.012-.012-.011-.011-.012-.012-.012-.013-.013-.012-.012-.013-.013-.012-.013-.013-.02-.019-.023-.022-.023-.022c-.028-.027-.058-.053-.087-.08l-.019-.017-.019-.016-.02-.017-.019-.016-.012-.011-.013-.011-.012-.01-.013-.011-.012-.01-.013-.01-.012-.01-.012-.01-.013-.01-.012-.01-.012-.01-.012-.009-.014-.011-.015-.011-.015-.012-.015-.011-.015-.011-.015-.012-.021-.015-.021-.015-.02-.015-.023-.016-.03-.02-.029-.02-.033-.022-.037-.024-.037-.023-.04-.024-.023-.014-6.971-4.024-.016-.01-.041-.022-.039-.021-.038-.019-.038-.018-.036-.016-.038-.016-.036-.013-.038-.013-.038-.011-.025-.006h0l-.011,0a.3.3,0,0,0-.042-.006.275.275,0,0,0-.049,0,.144.144,0,0,0-.106.042l-.848.948c.038-.042.109-.053.209-.031h0a1.441,1.441,0,0,1,.384.165l6.97,4.025a3.416,3.416,0,0,1,.395.269h0a4.465,4.465,0,0,1,.382.333h0a4.214,4.214,0,0,1,.326.356v0a2.129,2.129,0,0,1,.228.336l.847-.948Z" fill="#fff" opacity="0.2"/>
        </g>
        <path id="Path_1384" data-name="Path 1384" d="M334.557,221.721a13.052,13.052,0,0,0-.283,2.263,8.289,8.289,0,0,0,2.131,4.871,2.486,2.486,0,0,0,.932.674,1.1,1.1,0,0,0,1.094-.161,1.642,1.642,0,0,0,.394-1.137,6.171,6.171,0,0,0-.081-1.836,2.577,2.577,0,0,0-.95-1.535,5.69,5.69,0,0,0-1.221-.555,3,3,0,0,1-1.085-.8Z" fill="#f28f8f"/>
        <path id="Path_1385" data-name="Path 1385" d="M367.847,198.949l.954-1.7-7.677-.665a14.6,14.6,0,0,1-11.633,5.77,4.023,4.023,0,0,1-2.6-.693,3.159,3.159,0,0,1-.734-3.4,6.635,6.635,0,0,1,1.1-1.95h-2.236a24.389,24.389,0,0,0-6.142,8.809,10.545,10.545,0,0,0-.99,4.672,5.018,5.018,0,0,0,2.257,4.04,23.843,23.843,0,0,0,.183,5.63,7.645,7.645,0,0,0,2.462,4.8,9.819,9.819,0,0,0,4.718,1.809,35.094,35.094,0,0,0,12.966-.244,12.669,12.669,0,0,0,5.461-2.29v-17.28A14.927,14.927,0,0,1,367.847,198.949Z" fill="#455a64"/>
        <path id="Path_1386" data-name="Path 1386" d="M357.909,188.289c-2.692,5.224-4.367,5.337-8.354,5.8v-2.579Z" opacity="0.2"/>
      </g>
      <path id="Path_1387" data-name="Path 1387" d="M367.847,198.949l.954-1.7-7.677-.665a14.6,14.6,0,0,1-11.633,5.77,4.023,4.023,0,0,1-2.6-.693,3.159,3.159,0,0,1-.734-3.4,6.635,6.635,0,0,1,1.1-1.95h-2.236a24.389,24.389,0,0,0-6.142,8.809,10.545,10.545,0,0,0-.99,4.672,5.018,5.018,0,0,0,2.257,4.04,23.843,23.843,0,0,0,.183,5.63,7.645,7.645,0,0,0,2.462,4.8,9.819,9.819,0,0,0,4.718,1.809,35.094,35.094,0,0,0,12.966-.244,12.669,12.669,0,0,0,5.461-2.29v-17.28A14.927,14.927,0,0,1,367.847,198.949Z" opacity="0.2"/>
      <path id="Path_1388" data-name="Path 1388" d="M341.623,176.209a32.59,32.59,0,0,0-.142,11.949,6.359,6.359,0,0,0,1.869,4.012c1.451,1.166,3.526.991,5.372.757a21.412,21.412,0,0,0,5.915-1.329,7.225,7.225,0,0,0,4.151-4.193,2.605,2.605,0,0,0,3.152-.509,4.628,4.628,0,0,0,1.162-3.167,3.044,3.044,0,0,0-1.142-2.766,2.374,2.374,0,0,0-2.061-.087,5.083,5.083,0,0,0-1.72,1.242,3.53,3.53,0,0,1-.82.7,1.007,1.007,0,0,1-1.029.007,1.5,1.5,0,0,1-.439-1.212,11.265,11.265,0,0,0-1.2-5.26,4.323,4.323,0,0,0-4.558-2.229,10.689,10.689,0,0,1-2.362.77,3.783,3.783,0,0,1-1.874-.614l-.033-.019A2.733,2.733,0,0,0,341.623,176.209Z" fill="#f28f8f"/>
      <g id="Group_2891" data-name="Group 2891">
        <path id="Path_1389" data-name="Path 1389" d="M347.285,181.107l-2.39,4.023,2.849.535Z" fill="#f28f8f"/>
        <path id="Path_1390" data-name="Path 1390" d="M347.285,181.107l-2.39,4.023,2.849.535Z" opacity="0.1"/>
        <path id="Path_1391" data-name="Path 1391" d="M350.492,187.051l-2.166,1.053a1.417,1.417,0,0,0,1.642.467A1.277,1.277,0,0,0,350.492,187.051Z" fill="#f28f8f"/>
        <path id="Path_1392" data-name="Path 1392" d="M350.492,187.051l-2.166,1.053a1.417,1.417,0,0,0,1.642.467A1.277,1.277,0,0,0,350.492,187.051Z" opacity="0.3"/>
        <path id="Path_1393" data-name="Path 1393" d="M349.216,188.642a1.313,1.313,0,0,0,.752-.071,1.153,1.153,0,0,0,.579-1.142,1.314,1.314,0,0,0-1.331,1.213Z" fill="#f28f8f"/>
        <path id="Path_1394" data-name="Path 1394" d="M349.216,188.642a1.313,1.313,0,0,0,.752-.071,1.153,1.153,0,0,0,.579-1.142,1.314,1.314,0,0,0-1.331,1.213Z" opacity="0.1"/>
        <path id="Path_1395" data-name="Path 1395" d="M351.412,181.266a.819.819,0,1,1-.9-.732A.819.819,0,0,1,351.412,181.266Z" fill="#263238"/>
        <path id="Path_1396" data-name="Path 1396" d="M344.549,181.692a.819.819,0,1,1-.9-.732A.818.818,0,0,1,344.549,181.692Z" fill="#263238"/>
        <path id="Path_1397" data-name="Path 1397" d="M343.43,178.531l-1.679,1.43a1.165,1.165,0,0,1,.224-1.313A1.382,1.382,0,0,1,343.43,178.531Z" fill="#263238"/>
        <path id="Path_1398" data-name="Path 1398" d="M350.393,177.73l1.931,1.067a1.169,1.169,0,0,0-.482-1.243A1.384,1.384,0,0,0,350.393,177.73Z" fill="#263238"/>
      </g>
    </g>
    <g id="Group_2903" data-name="Group 2903">
      <g id="Group_2893" data-name="Group 2893">
        <path id="Path_1399" data-name="Path 1399" d="M425.189,286.943l1.853,3.907-4.431,4.874.322,11.64,14.285-12.4a3.866,3.866,0,0,0,.95-4.6l-4.359-9.06Z" fill="#733d3c"/>
        <path id="Path_1400" data-name="Path 1400" d="M424.833,287.883c5.673-.5,9.539-6.378,9.539-6.378-5.075-10.392-9.505-21.952-18.367-19.193Z" fill="#fff"/>
        <path id="Path_1401" data-name="Path 1401" d="M419.786,273.263l5.047,14.619a10.643,10.643,0,0,0,4.883-1.806A29.635,29.635,0,0,0,419.786,273.263Z" opacity="0.1"/>
      </g>
      <g id="Group_2898" data-name="Group 2898">
        <g id="Group_2895" data-name="Group 2895">
          <g id="Group_2894" data-name="Group 2894">
            <path id="Path_1402" data-name="Path 1402" d="M402.69,410.1a4.6,4.6,0,0,1-4.149,2.792,20.625,20.625,0,0,1-5.248-.671c-3.9-.706-7.658-.006-11.546-.1a16.437,16.437,0,0,1-3.8-.412,6.273,6.273,0,0,1-3.247-1.914,4.242,4.242,0,0,1-.934-2.035,4.011,4.011,0,0,0,.934,3.176,6.271,6.271,0,0,0,3.247,1.913,16.437,16.437,0,0,0,3.8.412c3.888.092,7.648-.608,11.546.1a20.581,20.581,0,0,0,5.248.671,4.6,4.6,0,0,0,4.149-2.792,4.433,4.433,0,0,0,.135-1.8A3.459,3.459,0,0,1,402.69,410.1Z" fill="#37474f"/>
            <path id="Path_1403" data-name="Path 1403" d="M402.59,406.865l-.717-3.542a5.25,5.25,0,0,0-.6-1.8,1.784,1.784,0,0,0-1.577-.9c-2.135-.284-5.137-1.057-6.911.164a15.92,15.92,0,0,1-9.548,2.773,33.285,33.285,0,0,0-5.282-.213c-1.752.215-3.575,1.191-4.1,2.877a3.391,3.391,0,0,0-.09,1.538,4.242,4.242,0,0,0,.934,2.035,6.273,6.273,0,0,0,3.247,1.914,16.437,16.437,0,0,0,3.8.412c3.888.092,7.648-.608,11.546.1a20.625,20.625,0,0,0,5.248.671,4.6,4.6,0,0,0,4.149-2.792,3.459,3.459,0,0,0,.135-.656A8.279,8.279,0,0,0,402.59,406.865Z" fill="#455a64"/>
          </g>
          <path id="Path_1404" data-name="Path 1404" d="M392.267,397.073l-.152,4.615a1.825,1.825,0,0,0,1.7,1.886,28.924,28.924,0,0,0,4.65-.045,2.626,2.626,0,0,0,2.379-2.471l.183-3.408Z" fill="#733d3c"/>
        </g>
        <g id="Group_2897" data-name="Group 2897">
          <g id="Group_2896" data-name="Group 2896">
            <path id="Path_1405" data-name="Path 1405" d="M422.4,394.618a3.554,3.554,0,0,1-.618,1.906,3.469,3.469,0,0,1-2.177,1.226,5.5,5.5,0,0,1-5.4-2.225c-.581-.84-.911-1.828-1.46-2.689a12.235,12.235,0,0,0-3.03-2.947,12.781,12.781,0,0,1-3.054-2.926,4.314,4.314,0,0,1-.583-3.9,3.2,3.2,0,0,0-.286.491,4.431,4.431,0,0,0,.548,4.157,13.074,13.074,0,0,0,3.115,3.016,12.545,12.545,0,0,1,3.093,3.038c.56.887.9,1.906,1.489,2.772a5.584,5.584,0,0,0,5.515,2.294,3.531,3.531,0,0,0,2.222-1.264,4.288,4.288,0,0,0,.646-2.651C422.409,394.814,422.4,394.716,422.4,394.618Z" fill="#37474f"/>
            <path id="Path_1406" data-name="Path 1406" d="M421,388.826c-1.4-2.459-4.3-4.248-6.528-5.989a8.375,8.375,0,0,0-4.325-1.965,4.06,4.06,0,0,0-4.029,2.059c-.019.042-.029.086-.046.128a4.314,4.314,0,0,0,.583,3.9,12.781,12.781,0,0,0,3.054,2.926,12.235,12.235,0,0,1,3.03,2.947c.549.861.879,1.849,1.46,2.689a5.5,5.5,0,0,0,5.4,2.225,3.469,3.469,0,0,0,2.177-1.226,3.554,3.554,0,0,0,.618-1.906c.016-.222.019-.445.015-.665A10.845,10.845,0,0,0,421,388.826Z" fill="#455a64"/>
          </g>
          <path id="Path_1407" data-name="Path 1407" d="M414.913,386.694v4.194a7.036,7.036,0,0,0,6.527-.289l.393-3.774Z" fill="#733d3c"/>
        </g>
        <path id="Path_1408" data-name="Path 1408" d="M422.934,310.6c1.258,3.775-.289,21.7-1.022,38.9,2.725,6.5,1.992,24.953.419,38.058,0,0-2.726,1.677-7.654,0l-6.185-36.171-.859-20.444s-1.553,18.138-3.335,29.775c1.678,8.912,1.258,10.589-2.883,38a10.341,10.341,0,0,1-9.279,0c-2.342-38.512-1.481-73.608-1.037-86.228Z" fill="#37474f"/>
        <path id="Path_1409" data-name="Path 1409" d="M408.156,343.394l-.7-16.674c4.309,0,8.308-3.221,11.349-6.274a19.28,19.28,0,0,1-8.583,7.51Z" opacity="0.3"/>
      </g>
      <path id="Path_1410" data-name="Path 1410" d="M390.442,280.861v32.652c19.226,8.056,31.686.779,33.377-3.007-.886-13.292,2.256-28.84,2.014-35.446s-1.051-14.047-11.293-12.555l-10.893,1.063-5.525,1.342Z" fill="#fff"/>
      <path id="Path_1411" data-name="Path 1411" d="M390.442,285.066l7.878-8.668a37.653,37.653,0,0,1-7.878,16.194Z" opacity="0.1"/>
      <g id="Group_2900" data-name="Group 2900">
        <g id="Group_2899" data-name="Group 2899">
          <path id="Path_1412" data-name="Path 1412" d="M380.235,279.087l-3.669,3.819-8.8-11.66a33.725,33.725,0,0,0,2.149-9.664,1.038,1.038,0,0,0-1.039-1.091h0a1.041,1.041,0,0,0-.94.594l-1.627,3.427h0a1.614,1.614,0,0,1-1.018-1l-.319-.9a5.684,5.684,0,0,1-.322-1.885V258.47a1.811,1.811,0,0,0-2.686-1.577,8.887,8.887,0,0,0-2.661,2.2,4.8,4.8,0,0,0-1.086,3.051v3.045a6.728,6.728,0,0,0,.4,2.3l1.589,4.37A6.728,6.728,0,0,0,360.76,273l11.354,19.025a5.4,5.4,0,0,0,8.229,1.272l7.23-6.42Z" fill="#8c5554"/>
          <path id="Path_1413" data-name="Path 1413" d="M374.317,287.593a10.992,10.992,0,0,1,2.249-4.687l-1.012-1.341C374.793,282.974,373.715,285.721,374.317,287.593Z" fill="#733d3c"/>
        </g>
        <path id="Path_1414" data-name="Path 1414" d="M379.331,279.112l10.324-10.157a14.53,14.53,0,0,1,8.488-4.07l.186-.022c4.372,9.575-1.408,14.249-1.408,14.249l-9.6,8.821A17.338,17.338,0,0,1,379.331,279.112Z" fill="#fff"/>
      </g>
      <g id="Group_2902" data-name="Group 2902">
        <g id="Group_2901" data-name="Group 2901">
          <path id="Path_1415" data-name="Path 1415" d="M398.424,241.142a1.537,1.537,0,0,1-.226-1.705,1.963,1.963,0,0,1-1.622-.226,1.5,1.5,0,0,1-.71-1.387,1.261,1.261,0,0,1,1.048-1.105,2.167,2.167,0,0,1-1.632-2.295A2.638,2.638,0,0,1,397.1,232.4a6.3,6.3,0,0,1,2.838-.154,2.284,2.284,0,0,1,1.2-2.691,2.792,2.792,0,0,1,2.608.427,8.237,8.237,0,0,1,1.845,2.033,8.113,8.113,0,0,1,11.544,4.5,5.57,5.57,0,0,1,3.611,3.762,8.8,8.8,0,0,1-.311,5.28,23.977,23.977,0,0,1-2.469,4.76q-.676,1.083-1.362,2.159c-.571.9-2.032,3.145-2.6,4.048a8.461,8.461,0,0,1-8.053-.5,13.687,13.687,0,0,1-5.171-6.418A43.925,43.925,0,0,1,398.424,241.142Z" fill="#263238"/>
        </g>
        <path id="Path_1416" data-name="Path 1416" d="M397.176,246.736l-1.72,2.99,1.7.629A34.951,34.951,0,0,1,397.176,246.736Z" fill="#733d3c"/>
        <path id="Path_1417" data-name="Path 1417" d="M398.424,241.142a24.14,24.14,0,0,0-1.248,5.594,35.96,35.96,0,0,0,.572,8.674,5.469,5.469,0,0,0,1,2.534,3.985,3.985,0,0,0,2.754,1.268,11.806,11.806,0,0,0,3.089-.3v4.9c3.722.877,6.8,1.265,9.722-.981l-.31-6.306a9.112,9.112,0,0,1-5.238-.828c-2.571-1.386-3.291-3.6-2.93-4.842a1.935,1.935,0,0,0,2.011.707,2.7,2.7,0,0,0,1.669-1.326,5.539,5.539,0,0,0,.622-2.087,3.8,3.8,0,0,0-.381-2.586,2.706,2.706,0,0,0-2.912-.981,4.168,4.168,0,0,0-2.451,2.049,6.474,6.474,0,0,0-.431.939.582.582,0,0,1-1.128-.144,7.76,7.76,0,0,1,.737-4.1,3.069,3.069,0,0,1-1.373.319,1.733,1.733,0,0,1-1.317-.613,1.175,1.175,0,0,1-.051-1.393A2.279,2.279,0,0,1,398.424,241.142Z" fill="#8c5554"/>
      </g>
    </g>
    <g id="Group_2910" data-name="Group 2910">
      <g id="Group_2905" data-name="Group 2905">
        <path id="Path_1418" data-name="Path 1418" d="M310.068,413.467a5.035,5.035,0,0,1-3.617,2.181,16.6,16.6,0,0,1-4.964-.315,32.887,32.887,0,0,0-7.407-.189,38.968,38.968,0,0,1-4.609.33,7.316,7.316,0,0,1-4.333-1.373,4.411,4.411,0,0,1-1.627-2.765,4.181,4.181,0,0,0,1.627,3.729,7.315,7.315,0,0,0,4.333,1.373,38.962,38.962,0,0,0,4.609-.33,32.888,32.888,0,0,1,7.407.19,17.472,17.472,0,0,0,5.081.431,5.035,5.035,0,0,0,3.617-2.181Z" fill="#455a64"/>
        <g id="Group_2904" data-name="Group 2904">
          <path id="Path_1419" data-name="Path 1419" d="M292.087,410.537c1.382,0,.874-2.045,2.189-3.416-.535.031-1.072.04-1.609.039C291.485,408.862,291.153,410.537,292.087,410.537Z" fill="#fff"/>
          <path id="Path_1420" data-name="Path 1420" d="M294.958,410.43c1.39,0,1.025-2.438,2.392-3.86a8.872,8.872,0,0,1-.947.272c-.272.062-.546.108-.822.149C294.364,408.715,294.013,410.43,294.958,410.43Z" fill="#fff"/>
          <path id="Path_1421" data-name="Path 1421" d="M308.639,405.756a1.883,1.883,0,0,0-.719-1.126l-7.47-.186a6.417,6.417,0,0,1-3.1,2.126c-1.367,1.422-1,3.86-2.392,3.86-.945,0-.594-1.715.623-3.439-.432.063-.867.105-1.3.13-1.315,1.371-.807,3.416-2.189,3.416-.934,0-.6-1.675.58-3.377q-.523,0-1.047-.011c-.316,0-.635-.026-.955-.052-2.746,2.172-2.98,4.529-2.626,8.227a10.022,10.022,0,0,0,1.432.15,38.968,38.968,0,0,0,4.609-.33,32.887,32.887,0,0,1,7.407.189,16.6,16.6,0,0,0,4.964.315,5.035,5.035,0,0,0,3.617-2.181Z" fill="#455a64"/>
          <path id="Path_1422" data-name="Path 1422" d="M290.665,407.1a11.78,11.78,0,0,0-3.734,0,4.448,4.448,0,0,0-3.361,2.926,3.31,3.31,0,0,0-.059,1.314,4.411,4.411,0,0,0,1.627,2.765,6.447,6.447,0,0,0,2.9,1.223C287.685,411.626,287.919,409.269,290.665,407.1Z" fill="#fff"/>
        </g>
        <path id="Path_1423" data-name="Path 1423" d="M300.237,402.316v3.6a1.479,1.479,0,0,0,1.479,1.478h3.765a2.426,2.426,0,0,0,2.425-2.346l.09-2.731Z" fill="#ffa8a7"/>
      </g>
      <g id="Group_2907" data-name="Group 2907">
        <path id="Path_1424" data-name="Path 1424" d="M325.128,400.715a2.769,2.769,0,0,1-2.266,1.587,4.77,4.77,0,0,1-2.868-.706c-1.295-.822-1.8-2.117-2.684-3.283a19.649,19.649,0,0,0-3.124-3.051A10.309,10.309,0,0,1,311.2,391.8a4.618,4.618,0,0,1-.353-1.269,4.514,4.514,0,0,0,.353,2.436,10.329,10.329,0,0,0,2.985,3.461,19.643,19.643,0,0,1,3.124,3.05c.884,1.166,1.389,2.461,2.684,3.284a4.776,4.776,0,0,0,2.868.7,2.766,2.766,0,0,0,2.266-1.587,6.193,6.193,0,0,0,.136-2.005A2.487,2.487,0,0,1,325.128,400.715Z" fill="#455a64"/>
        <g id="Group_2906" data-name="Group 2906">
          <path id="Path_1425" data-name="Path 1425" d="M316.642,392.816a.937.937,0,0,0-.182.616.64.64,0,0,0,.408.465.9.9,0,0,0,.84-.218,4.406,4.406,0,0,0,.582-.693,4.35,4.35,0,0,1,3.071-1.656l-.934-.852a4.6,4.6,0,0,0-3.785,2.338Z" fill="#fff"/>
          <path id="Path_1426" data-name="Path 1426" d="M316.841,389.847a4.726,4.726,0,0,0-2.083,1.921.935.935,0,0,0-.182.616.639.639,0,0,0,.408.464.9.9,0,0,0,.84-.217,4.423,4.423,0,0,0,.583-.694,4.337,4.337,0,0,1,3.809-1.651l-.923-.842A4.715,4.715,0,0,0,316.841,389.847Z" fill="#fff"/>
          <path id="Path_1427" data-name="Path 1427" d="M318.7,388.912a9.776,9.776,0,0,0-2.933-1.959,3.9,3.9,0,0,0-4.03.557,3.488,3.488,0,0,0-.893,3.022,4.618,4.618,0,0,0,.353,1.269,6.617,6.617,0,0,0,.927,1.468C312.486,390.052,315.279,388.547,318.7,388.912Z" fill="#fff"/>
          <path id="Path_1428" data-name="Path 1428" d="M325.2,397.56a6.71,6.71,0,0,0-.731-3.144l-1.816-1.9-1.3-1.181a4.35,4.35,0,0,0-3.071,1.656,4.406,4.406,0,0,1-.582.693.9.9,0,0,1-.84.218.64.64,0,0,1-.408-.465.937.937,0,0,1,.182-.616,4.6,4.6,0,0,1,3.785-2.338l-.211-.192a4.337,4.337,0,0,0-3.809,1.651,4.423,4.423,0,0,1-.583.694.9.9,0,0,1-.84.217.639.639,0,0,1-.408-.464.935.935,0,0,1,.182-.616,4.635,4.635,0,0,1,4.535-2.324l-.034-.031q-.276-.252-.555-.5c-3.425-.365-6.218,1.14-6.576,4.357a15.4,15.4,0,0,0,2.058,1.993,19.649,19.649,0,0,1,3.124,3.051c.884,1.166,1.389,2.461,2.684,3.283a4.77,4.77,0,0,0,2.868.706,2.769,2.769,0,0,0,2.266-1.587,2.487,2.487,0,0,0,.136-.839A22.474,22.474,0,0,0,325.2,397.56Z" fill="#455a64"/>
        </g>
        <path id="Path_1429" data-name="Path 1429" d="M318.649,391.872l.213,3.862a5.148,5.148,0,0,0,5.855-.25l.16-3.612Z" fill="#ffa8a7"/>
      </g>
      <path id="Path_1430" data-name="Path 1430" d="M323.451,308.395a3.487,3.487,0,0,1-.369-1.33l-.208-3.314-23.618,1.516c-.313,1.657-.629,3.686-.938,5.984A35.128,35.128,0,0,0,323.451,308.395Z" fill="#ff9192"/>
      <path id="Path_1431" data-name="Path 1431" d="M322.989,295.021l5.031,9.718-4.569,7.653,5.052,7.993,7.631-11.846a6.656,6.656,0,0,0,.78-5.471,93.232,93.232,0,0,0-4.958-13.492Z" fill="#ffa8a7"/>
      <path id="Path_1432" data-name="Path 1432" d="M318.991,276.247c5.79-1.077,9.1.853,13.992,13.949-2,4.48-10.477,6.134-10.477,6.134Z" fill="#ba68c8"/>
      <path id="Path_1433" data-name="Path 1433" d="M318.991,276.247c5.79-1.077,9.1.853,13.992,13.949-2,4.48-10.477,6.134-10.477,6.134Z" fill="#fff" opacity="0.4"/>
      <g id="Group_2908" data-name="Group 2908">
        <path id="Path_1434" data-name="Path 1434" d="M299.452,262.641l-1.952,3.392,2.137.79Z" fill="#ff9192"/>
        <path id="Path_1435" data-name="Path 1435" d="M299.231,261.129c.314-2.976,1.185-5.781,3.122-7.2a16.073,16.073,0,0,0,2.232,10.648,4.652,4.652,0,0,1,1.442-2.552,2.685,2.685,0,0,1,2.772-.591,2.73,2.73,0,0,1,1.394,1.518,3.614,3.614,0,0,1-4.517,4.774,6.939,6.939,0,0,0,5.336,5.4,8.938,8.938,0,0,0,5.173-.492l.807,4.01c-3.265,3.483-8.843,1.143-8.843,1.143l-.735-3.945c-6.421.381-7.02.272-7.727-3.265A34.647,34.647,0,0,1,299.231,261.129Z" fill="#ffa8a7"/>
        <path id="Path_1436" data-name="Path 1436" d="M298.465,254a10.335,10.335,0,0,1,6.125-5.6,17.5,17.5,0,0,1,8.436-.645,15.385,15.385,0,0,1,5.032,1.483,8.535,8.535,0,0,1,3.722,3.707l.33-2.738a2.007,2.007,0,0,1,1.481,1.329,2.163,2.163,0,0,1-.505,2.007h.258a8.613,8.613,0,0,1,8.612,8.613V276.78a8.457,8.457,0,0,1-8.457-8.457v-3.361a15.885,15.885,0,0,1-4.867,6.336,10.8,10.8,0,0,1-2.447,1.336,8.938,8.938,0,0,1-5.173.492,6.939,6.939,0,0,1-5.336-5.4,3.614,3.614,0,0,0,4.517-4.774,2.73,2.73,0,0,0-1.394-1.518,2.685,2.685,0,0,0-2.772.591,4.652,4.652,0,0,0-1.442,2.552,16.073,16.073,0,0,1-2.232-10.648c-1.937,1.423-2.808,4.228-3.122,7.2A7.581,7.581,0,0,1,298.465,254Z" fill="#ba68c8"/>
        <path id="Path_1437" data-name="Path 1437" d="M298.465,254a10.335,10.335,0,0,1,6.125-5.6,17.5,17.5,0,0,1,8.436-.645,15.385,15.385,0,0,1,5.032,1.483,8.535,8.535,0,0,1,3.722,3.707l.33-2.738a2.007,2.007,0,0,1,1.481,1.329,2.163,2.163,0,0,1-.505,2.007h.258a8.613,8.613,0,0,1,8.612,8.613V276.78a8.457,8.457,0,0,1-8.457-8.457v-3.361a15.885,15.885,0,0,1-4.867,6.336,10.8,10.8,0,0,1-2.447,1.336,8.938,8.938,0,0,1-5.173.492,6.939,6.939,0,0,1-5.336-5.4,3.614,3.614,0,0,0,4.517-4.774,2.73,2.73,0,0,0-1.394-1.518,2.685,2.685,0,0,0-2.772.591,4.652,4.652,0,0,0-1.442,2.552,16.073,16.073,0,0,1-2.232-10.648c-1.937,1.423-2.808,4.228-3.122,7.2A7.581,7.581,0,0,1,298.465,254Z" opacity="0.4"/>
      </g>
      <path id="Path_1438" data-name="Path 1438" d="M308.149,277.787l-6.32,1.243c-1.4,2.556-2.82,4.957-4.217,7.513-1.052,1.925-2.135,3.972-2.055,6.165a6.281,6.281,0,0,0,3.785,5.446l-.73,8.63c9.926,3.033,22.056.367,24.722-1.93.783-3.617,1.477-7.463,2.261-11.08a37.412,37.412,0,0,0,1.069-7.121A12.546,12.546,0,0,0,325,279.74l-.039-.061a7.728,7.728,0,0,0-7.757-3.33Z" fill="#ba68c8"/>
      <path id="Path_1439" data-name="Path 1439" d="M308.149,277.787l-6.32,1.243c-1.4,2.556-2.82,4.957-4.217,7.513-1.052,1.925-2.135,3.972-2.055,6.165a6.281,6.281,0,0,0,3.785,5.446l-.73,8.63c9.926,3.033,22.056.367,24.722-1.93.783-3.617,1.477-7.463,2.261-11.08a37.412,37.412,0,0,0,1.069-7.121A12.546,12.546,0,0,0,325,279.74l-.039-.061a7.728,7.728,0,0,0-7.757-3.33Z" fill="#8200ce"/>
      <path id="Path_1440" data-name="Path 1440" d="M323.817,309a3.842,3.842,0,0,1-.366-.6,35.128,35.128,0,0,1-25.133,2.856c-1.781,13.25-3.31,35.687-2.371,50.489.782,17.231,3.952,41.631,3.952,41.631,4.136,1.24,7.237.482,8.409-.414,1.378-17.093,4.411-28.811,2.068-40.114,1.562-7.9,2.573-17.829,2.573-17.829l1.2,17.461,4.043,30.7a7.251,7.251,0,0,0,7.26-.368c2.941-17.553,4.044-29.447,1.471-38.158C330.844,325.841,331.044,318.471,323.817,309Z" fill="#ba68c8"/>
      <path id="Path_1441" data-name="Path 1441" d="M323.817,309a3.842,3.842,0,0,1-.366-.6,35.128,35.128,0,0,1-25.133,2.856c-1.781,13.25-3.31,35.687-2.371,50.489.782,17.231,3.952,41.631,3.952,41.631,4.136,1.24,7.237.482,8.409-.414,1.378-17.093,4.411-28.811,2.068-40.114,1.562-7.9,2.573-17.829,2.573-17.829l1.2,17.461,4.043,30.7a7.251,7.251,0,0,0,7.26-.368c2.941-17.553,4.044-29.447,1.471-38.158C330.844,325.841,331.044,318.471,323.817,309Z" opacity="0.5"/>
      <path id="Path_1442" data-name="Path 1442" d="M314.688,341.563l2.167-9.093a12.75,12.75,0,0,0,8.555-5.535,17.4,17.4,0,0,1-10.485,3.7l-1.976,14.382.42,6.146.17-2.236A47.179,47.179,0,0,1,314.688,341.563Z" opacity="0.3"/>
      <g id="Group_2909" data-name="Group 2909">
        <path id="Path_1443" data-name="Path 1443" d="M285.3,279.635a52.107,52.107,0,0,1-9.8-1.079s-7.72-8.9-9.971-12.851c.536-2.121,1.076-4.207,1.613-6.318a3.514,3.514,0,0,0-.13-2.164,14.6,14.6,0,0,0-1.4-2.743,5.05,5.05,0,0,0-3.215-2.271,3.083,3.083,0,0,0-3.344,1.685,3.366,3.366,0,0,0,.2,2.649,9.964,9.964,0,0,0,1.6,2.21,8.309,8.309,0,0,0-.129,7.562l6.774,17.524a6.565,6.565,0,0,0,4.994,4.1l10.876,1.9c1.176-1.267,4.655-2.549,5.027-4.238C288.81,283.719,286,281.427,285.3,279.635Z" fill="#ffa8a7"/>
        <path id="Path_1444" data-name="Path 1444" d="M300.842,278.915c-3.912.184-9.784.83-15.547.72a9.623,9.623,0,0,1-1.926,10.206l13.576,2.373a5.836,5.836,0,0,0,6.559-4.3c.422-1.72.875-3.161,1.135-4.836A3.644,3.644,0,0,0,300.842,278.915Z" fill="#ba68c8"/>
        <path id="Path_1445" data-name="Path 1445" d="M300.842,278.915c-3.912.184-9.784.83-15.547.72a9.623,9.623,0,0,1-1.926,10.206l13.576,2.373a5.836,5.836,0,0,0,6.559-4.3c.422-1.72.875-3.161,1.135-4.836A3.644,3.644,0,0,0,300.842,278.915Z" fill="#fff" opacity="0.4"/>
      </g>
    </g>
    <g id="Group_2925" data-name="Group 2925">
      <g id="Group_2912" data-name="Group 2912">
        <g id="Group_2911" data-name="Group 2911">
          <path id="Path_1446" data-name="Path 1446" d="M245.816,321.056l1.853,3.907-4.431,4.874.323,11.64,14.285-12.4a3.867,3.867,0,0,0,.949-4.6l-4.359-9.061Z" fill="#ffbea7"/>
          <path id="Path_1447" data-name="Path 1447" d="M250.22,328.447a8.977,8.977,0,0,1-2.551-3.484l-1.1,1.214A5.681,5.681,0,0,0,250.22,328.447Z" fill="#e39d84"/>
        </g>
        <path id="Path_1448" data-name="Path 1448" d="M245.46,322c5.673-.5,9.54-6.378,9.54-6.378-5.075-10.392-9.506-21.952-18.367-19.193Z" fill="#ba68c8"/>
        <path id="Path_1449" data-name="Path 1449" d="M245.46,322c5.673-.5,9.54-6.378,9.54-6.378-5.075-10.392-9.506-21.952-18.367-19.193Z" opacity="0.2"/>
      </g>
      <g id="Group_2917" data-name="Group 2917">
        <g id="Group_2914" data-name="Group 2914">
          <g id="Group_2913" data-name="Group 2913">
            <path id="Path_1450" data-name="Path 1450" d="M223.317,444.209A4.6,4.6,0,0,1,219.168,447a20.587,20.587,0,0,1-5.248-.671c-3.9-.706-7.658-.006-11.545-.1a16.451,16.451,0,0,1-3.8-.412,6.268,6.268,0,0,1-3.246-1.913,4.242,4.242,0,0,1-.935-2.036,4.007,4.007,0,0,0,.935,3.176,6.268,6.268,0,0,0,3.246,1.913,16.452,16.452,0,0,0,3.8.413c3.887.091,7.647-.609,11.545.1a20.586,20.586,0,0,0,5.248.671,4.6,4.6,0,0,0,4.149-2.791,4.44,4.44,0,0,0,.136-1.8A3.543,3.543,0,0,1,223.317,444.209Z" fill="#455a64"/>
            <path id="Path_1451" data-name="Path 1451" d="M223.217,440.979l-.717-3.543a5.257,5.257,0,0,0-.6-1.8,1.782,1.782,0,0,0-1.577-.9c-2.135-.284-5.137-1.057-6.911.165a15.924,15.924,0,0,1-9.548,2.772,33.4,33.4,0,0,0-5.282-.213c-1.752.215-3.575,1.191-4.1,2.877a3.378,3.378,0,0,0-.091,1.538,4.242,4.242,0,0,0,.935,2.036,6.268,6.268,0,0,0,3.246,1.913,16.451,16.451,0,0,0,3.8.412c3.887.092,7.647-.608,11.545.1a20.587,20.587,0,0,0,5.248.671,4.6,4.6,0,0,0,4.149-2.792,3.543,3.543,0,0,0,.136-.656A8.24,8.24,0,0,0,223.217,440.979Z" fill="#455a64"/>
          </g>
          <path id="Path_1452" data-name="Path 1452" d="M212.9,431.186l-.153,4.615a1.828,1.828,0,0,0,1.695,1.887,29.169,29.169,0,0,0,4.651-.045,2.627,2.627,0,0,0,2.378-2.472l.183-3.408Z" fill="#ffa8a7"/>
        </g>
        <g id="Group_2916" data-name="Group 2916">
          <g id="Group_2915" data-name="Group 2915">
            <path id="Path_1453" data-name="Path 1453" d="M243.023,428.732a3.567,3.567,0,0,1-.617,1.906,3.468,3.468,0,0,1-2.178,1.225,5.5,5.5,0,0,1-5.4-2.225c-.58-.839-.911-1.828-1.46-2.689a12.236,12.236,0,0,0-3.03-2.947,12.773,12.773,0,0,1-3.053-2.925,4.312,4.312,0,0,1-.584-3.9,3.1,3.1,0,0,0-.286.491,4.43,4.43,0,0,0,.548,4.156,13.041,13.041,0,0,0,3.116,3.016,12.557,12.557,0,0,1,3.092,3.038c.56.887.9,1.907,1.489,2.772a5.582,5.582,0,0,0,5.515,2.294,3.535,3.535,0,0,0,2.223-1.264,4.285,4.285,0,0,0,.645-2.651C243.036,428.927,243.028,428.829,243.023,428.732Z" fill="#455a64"/>
            <path id="Path_1454" data-name="Path 1454" d="M241.624,422.939c-1.4-2.459-4.3-4.248-6.527-5.989a8.373,8.373,0,0,0-4.325-1.964,4.057,4.057,0,0,0-4.029,2.058c-.02.042-.03.086-.047.129a4.312,4.312,0,0,0,.584,3.9A12.773,12.773,0,0,0,230.333,424a12.236,12.236,0,0,1,3.03,2.947c.549.861.88,1.85,1.46,2.689a5.5,5.5,0,0,0,5.4,2.225,3.468,3.468,0,0,0,2.178-1.225,3.567,3.567,0,0,0,.617-1.906c.016-.223.02-.446.015-.666A10.833,10.833,0,0,0,241.624,422.939Z" fill="#455a64"/>
          </g>
          <path id="Path_1455" data-name="Path 1455" d="M235.541,420.807V425a7.033,7.033,0,0,0,6.526-.288l.393-3.775Z" fill="#ffa8a7"/>
        </g>
        <path id="Path_1456" data-name="Path 1456" d="M243.561,344.718c1.258,3.774-.288,21.7-1.022,38.9,2.726,6.5,1.992,24.953.419,38.058,0,0-2.726,1.678-7.653,0l-6.186-36.17-.858-20.445s-1.553,18.138-3.336,29.776c1.678,8.911,1.258,10.589-2.883,38a10.335,10.335,0,0,1-9.278,0c-2.342-38.512-1.481-73.607-1.037-86.228Z" fill="#455a64"/>
        <path id="Path_1457" data-name="Path 1457" d="M228.783,377.507l-.7-16.673c4.31,0,8.308-3.221,11.349-6.275a19.272,19.272,0,0,1-8.583,7.51Z" opacity="0.3"/>
      </g>
      <path id="Path_1458" data-name="Path 1458" d="M211.069,314.974v32.653c19.226,8.055,31.686.778,33.378-3.008-.886-13.292,2.255-28.839,2.014-35.445s-1.052-14.048-11.294-12.556l-10.892,1.063-5.526,1.343Z" fill="#ba68c8"/>
      <g id="Group_2923" data-name="Group 2923">
        <g id="Group_2921" data-name="Group 2921">
          <g id="Group_2920" data-name="Group 2920" style="isolation: isolate">
            <g id="Group_2918" data-name="Group 2918">
              <path id="Path_1459" data-name="Path 1459" d="M184.631,303.943l-.74.17,5.316-3.069.74-.17Z" fill="#455a64"/>
            </g>
            <g id="Group_2919" data-name="Group 2919">
              <path id="Path_1460" data-name="Path 1460" d="M184.282,304.807a.486.486,0,0,1-.085-.127A.486.486,0,0,0,184.282,304.807Z" fill="none"/>
              <path id="Path_1461" data-name="Path 1461" d="M177.683,290.114h0a.541.541,0,0,1,.008-.134h0A.541.541,0,0,0,177.683,290.114Z" fill="none"/>
              <path id="Path_1462" data-name="Path 1462" d="M177.692,289.973c0-.011.01-.02.013-.031,0,.011-.01.02-.013.031Z" fill="none"/>
              <path id="Path_1463" data-name="Path 1463" d="M184.516,304.924a.309.309,0,0,1-.079-.016A.309.309,0,0,0,184.516,304.924Z" fill="none"/>
              <path id="Path_1464" data-name="Path 1464" d="M184.317,304.837a.342.342,0,0,0,.075.053A.342.342,0,0,1,184.317,304.837Z" fill="none"/>
              <path id="Path_1465" data-name="Path 1465" d="M183.824,287.264h0Z" fill="#455a64"/>
              <path id="Path_1466" data-name="Path 1466" d="M178.507,290.334h0l5.316-3.069h0Z" fill="#455a64"/>
              <path id="Path_1467" data-name="Path 1467" d="M178.507,290.334l5.009,11.133,1.115,2.477,5.316-3.069-6.124-13.61Z" fill="#ba68c8"/>
              <path id="Path_1468" data-name="Path 1468" d="M190.731,300.908l-6.471-14.382a.348.348,0,0,0-.478-.211l-5.926,3.421a.319.319,0,0,0-.094.089l-.018.026a.462.462,0,0,0-.039.091c0,.011-.01.02-.013.031v.007a.541.541,0,0,0-.008.134l0,.038a.545.545,0,0,0,.039.146L184.2,304.68a.486.486,0,0,0,.085.127c.011.012.023.019.035.03a.342.342,0,0,0,.075.053.279.279,0,0,0,.045.018.309.309,0,0,0,.079.016.26.26,0,0,0,.048,0,.287.287,0,0,0,.111-.032l5.926-3.422A.444.444,0,0,0,190.731,300.908Zm-6.907-13.644h0l6.123,13.61-5.316,3.069h0l-1.115-2.477-5.009-11.132h0l5.316-3.07Z" fill="#455a64"/>
              <path id="Path_1469" data-name="Path 1469" d="M184.437,304.908a.279.279,0,0,1-.045-.018.342.342,0,0,1-.075-.053c-.012-.011-.024-.018-.035-.03a.486.486,0,0,1-.085-.127L177.726,290.3a.545.545,0,0,1-.039-.146l0-.038h0a.541.541,0,0,1,.008-.134h0v-.007h0c0-.011.01-.02.013-.031a.462.462,0,0,1,.039-.091l.018-.026a.319.319,0,0,1,.094-.089l5.926-3.421a.26.26,0,0,1,.078-.031l-.74.17a.285.285,0,0,0-.078.03l-5.926,3.422a.319.319,0,0,0-.094.089l-.018.026a.392.392,0,0,0-.052.122v.006a.5.5,0,0,0-.012.1c0,.013,0,.026,0,.039l0,.038a.518.518,0,0,0,.039.146l6.471,14.382a.368.368,0,0,0,.4.242l.741-.17a.175.175,0,0,1-.032,0,.26.26,0,0,1-.048,0A.309.309,0,0,1,184.437,304.908Z" fill="#37474f"/>
            </g>
          </g>
        </g>
        <g id="Group_2922" data-name="Group 2922">
          <path id="Path_1470" data-name="Path 1470" d="M187.282,294.351" fill="#ffbea7"/>
          <path id="Path_1471" data-name="Path 1471" d="M177.971,292.658l-.516,2.582a5.866,5.866,0,0,0,.088,2.674l2.346,8.72,10.937,20.781a5.866,5.866,0,0,0,9.085,1.654l7.345-6.523-7.841-8.324-3.921,4.082L185.367,304.89l1.89-3.328a4.425,4.425,0,0,0,.557-2.6l-.259-2.761a.947.947,0,0,0-.9-.857h0a.947.947,0,0,0-.973.77l-.455,2.4a1.866,1.866,0,0,1-.429.882h0a1.868,1.868,0,0,1-2.695.124l-1.819-1.731Z" fill="#ffbea7"/>
          <path id="Path_1472" data-name="Path 1472" d="M193.091,323.311a11.752,11.752,0,0,1,2.4-5.007l-1.081-1.434C193.6,318.376,192.447,321.311,193.091,323.311Z" fill="#e39d84"/>
        </g>
        <path id="Path_1473" data-name="Path 1473" d="M198.448,314.249,209.481,303.4a15.515,15.515,0,0,1,9.07-4.349l.2-.023c4.672,10.23-1.5,15.225-1.5,15.225l-10.258,9.425A18.53,18.53,0,0,1,198.448,314.249Z" fill="#ba68c8"/>
        <path id="Path_1474" data-name="Path 1474" d="M198.448,314.249,209.481,303.4a15.515,15.515,0,0,1,9.07-4.349l.2-.023c4.672,10.23-1.5,15.225-1.5,15.225l-10.258,9.425A18.53,18.53,0,0,1,198.448,314.249Z" opacity="0.2"/>
      </g>
      <g id="Group_2924" data-name="Group 2924">
        <path id="Path_1475" data-name="Path 1475" d="M235.167,291.4a2.893,2.893,0,0,0,2.127-.72,2.1,2.1,0,0,0,.506-1.826,2,2,0,0,0,1.463-1.188,2.275,2.275,0,0,0-.341-1.99,3.349,3.349,0,0,0,2.167-1.768,3.517,3.517,0,0,0,.1-2.866,3.11,3.11,0,0,0,2.177-2.115,3.368,3.368,0,0,0-.618-3.105,4.18,4.18,0,0,0,.488-4.171,4.412,4.412,0,0,0-3.582-2.418,4.308,4.308,0,0,0-1.406-3.861,4.169,4.169,0,0,0-3.961-.775,3.8,3.8,0,0,0-6.341-1.087,2.9,2.9,0,0,0-2.565-.946,3,3,0,0,0-2.322,1.53,3.89,3.89,0,0,0-5.5,3.725,2.3,2.3,0,0,0-1.645,2.268,2.439,2.439,0,0,0,1.9,2.187,54.407,54.407,0,0,0,5.108,14.963c1.08,2.1,2.4,4.229,4.5,5.319C229.676,293.732,233.229,293.058,235.167,291.4Z" fill="#455a64"/>
        <path id="Path_1476" data-name="Path 1476" d="M217.03,279.1l-2.256,3.921,2.471.913Z" fill="#e39d84"/>
        <path id="Path_1477" data-name="Path 1477" d="M217.807,272.271a36.517,36.517,0,0,0-.647,16.662,5.683,5.683,0,0,0,1.036,2.637,4.148,4.148,0,0,0,2.865,1.319,12.332,12.332,0,0,0,3.214-.31v5.1c3.872.913,7.856,1.274,10.892-1.063V291.4a13.84,13.84,0,0,1-6.761.423c-2.676-1.443-3.213-6.33-2.837-7.619a2.013,2.013,0,0,0,2.092.735,2.813,2.813,0,0,0,1.737-1.379,5.776,5.776,0,0,0,.647-2.172,3.955,3.955,0,0,0-.4-2.69,2.813,2.813,0,0,0-3.03-1.021,4.331,4.331,0,0,0-2.55,2.132,6.777,6.777,0,0,0-.449.976.606.606,0,0,1-1.174-.149,8.076,8.076,0,0,1,.768-4.269,2.96,2.96,0,0,1-2.186-1.34,2.782,2.782,0,0,1-.422-2.451A8.252,8.252,0,0,1,217.807,272.271Z" fill="#ffbea7"/>
      </g>
    </g>
    <g id="Group_2934" data-name="Group 2934">
      <path id="Path_1478" data-name="Path 1478" d="M271.173,51.149a.9.9,0,0,0-.456-.784h0l-4.063-2.257-.02-.011-.015-.008v0a.9.9,0,0,0-.878.011L215.893,76.925a2.742,2.742,0,0,0-1.359,2.36l.03,10.342-9.628,9.956c-.864.894-.956,2.241-.285,2.452l3.839,2.116a.583.583,0,0,0,.526.173l5.587-.68.022,7.593a.9.9,0,0,0,.443.774h0l.005,0,.016.008,4.041,2.243a.655.655,0,0,0,.058.032c.014.008.03.012.044.019a.891.891,0,0,0,.826-.034L269.9,85.461a2.716,2.716,0,0,0,1.358-2.361ZM219.326,79.708c-.031.034-.062.069-.091.105C219.264,79.777,219.295,79.742,219.326,79.708Zm-.262.337c-.022.033-.046.065-.066.1C219.018,80.11,219.042,80.078,219.064,80.045Zm-.387.911c-.009.038-.016.077-.023.115C218.661,81.033,218.668,81,218.677,80.956Zm.854-1.448c.032-.028.062-.057.1-.083C219.593,79.451,219.563,79.48,219.531,79.508Z" fill="#8200ce"/>
      <path id="Path_1479" data-name="Path 1479" d="M218.7,113.5a.894.894,0,0,0,.431.765l-4.041-2.243-.016-.008-.005,0h0a.9.9,0,0,1-.443-.774l-.022-7.593,4.066-.5Z" opacity="0.1"/>
      <path id="Path_1480" data-name="Path 1480" d="M215.893,76.925,265.741,48.1a.9.9,0,0,1,.878-.011v0l.015.008.02.011,4.063,2.257h0a.9.9,0,0,0-.9,0L219.966,79.189a2.709,2.709,0,0,0-1.153,1.317l-4.04-2.333A2.707,2.707,0,0,1,215.893,76.925Z" fill="#fff" opacity="0.2"/>
      <path id="Path_1481" data-name="Path 1481" d="M214.564,89.627l-.03-10.342a2.709,2.709,0,0,1,.239-1.112l4.04,2.333a2.7,2.7,0,0,0-.205,1.043l.029,10.343-4.073-2.265Z" fill="#fff" opacity="0.1"/>
      <path id="Path_1482" data-name="Path 1482" d="M204.936,99.583l9.628-9.956,4.073,2.265h0l-9.628,9.955c-.745.771-.915,1.878-.519,2.3l-3.839-2.116C203.98,101.824,204.072,100.477,204.936,99.583Z" fill="#fff" opacity="0.05"/>
      <ellipse id="Ellipse_39" data-name="Ellipse 39" cx="3" cy="4" rx="3" ry="4" transform="translate(231.876 85.374) rotate(14)" fill="#fff"/>
      <ellipse id="Ellipse_40" data-name="Ellipse 40" cx="3" cy="4" rx="3" ry="4" transform="translate(241.876 79.374) rotate(14)" fill="#fff"/>
      <ellipse id="Ellipse_41" data-name="Ellipse 41" cx="3" cy="4" rx="3" ry="4" transform="translate(250.876 74.374) rotate(14)" fill="#fff"/>
    </g>
    <g id="Group_2940" data-name="Group 2940">
      <g id="Group_2935" data-name="Group 2935">
        <path id="Path_1490" data-name="Path 1490" d="M240.518,209.315l-26.832,15.394a5.292,5.292,0,0,0-2.631,4.542v19.525a5.173,5.173,0,0,0,7.911,4.259l4.662-2.664.422.683a.266.266,0,0,0,.069.061l0,.01.051.033.013.008c.768.508,2.118,1.233,2.421,1.389l-.007-.02a.285.285,0,0,0,.356-.176l1.717-4.867h0l17.127-9.787a5.237,5.237,0,0,0,2.639-4.547V213.573C248.432,209.794,242.869,207.967,240.518,209.315Z" fill="#f2634d"/>
        <path id="Path_1491" data-name="Path 1491" d="M218.35,227.886l0,0Z" fill="none"/>
        <path id="Path_1492" data-name="Path 1492" d="M224.05,251.054a.266.266,0,0,0,.069.061l0,.01.051.033.013.008c.768.508,2.118,1.233,2.421,1.389l-.007-.02a.278.278,0,0,1-.169-.119l-1.662-2.693.329-.188h0l-1.463.836Z" fill="#fff" opacity="0.2"/>
        <path id="Path_1493" data-name="Path 1493" d="M216.944,229.646a5.35,5.35,0,0,1,1.4-1.756l0,0a4.868,4.868,0,0,1,.635-.434l26.832-15.394a1.747,1.747,0,0,1,2.615,1.515c0-3.778-5.563-5.606-7.914-4.258l-26.832,15.394a5.212,5.212,0,0,0-1.951,1.979Z" fill="#fff" opacity="0.4"/>
        <path id="Path_1494" data-name="Path 1494" d="M216.354,251.519V231.995a4.7,4.7,0,0,1,.041-.619,5.424,5.424,0,0,1,.549-1.73l-5.209-2.958a5.218,5.218,0,0,0-.68,2.563v19.525a5.173,5.173,0,0,0,7.911,4.259A1.746,1.746,0,0,1,216.354,251.519Z" fill="#fff" opacity="0.2"/>
      </g>
      <g id="Group_2939" data-name="Group 2939">
        <g id="Group_2936" data-name="Group 2936">
          <path id="Path_1495" data-name="Path 1495" d="M229.5,232.742c.4-.234.733-.047.735.419v.213l.017,6.056,0,1.022a1.614,1.614,0,0,1-.73,1.27l-3.647,2.1c-.406.235-.738.046-.739-.421l-.021-7.291a1.616,1.616,0,0,1,.734-1.267Zm-1.368,8.787a1.691,1.691,0,0,0,.765-1.331c0-.489-.345-.684-.77-.439a1.693,1.693,0,0,0-.77,1.328c0,.489.35.687.775.442" fill="#ba68c8"/>
        </g>
        <g id="Group_2937" data-name="Group 2937" opacity="0.5">
          <path id="Path_1496" data-name="Path 1496" d="M229.5,232.742c.4-.234.733-.047.735.419v.213l.017,6.056,0,1.022a1.614,1.614,0,0,1-.73,1.27l-3.647,2.1c-.406.235-.738.046-.739-.421l-.021-7.291a1.616,1.616,0,0,1,.734-1.267Zm-1.368,8.787a1.691,1.691,0,0,0,.765-1.331c0-.489-.345-.684-.77-.439a1.693,1.693,0,0,0-.77,1.328c0,.489.35.687.775.442" fill="#fff"/>
        </g>
        <g id="Group_2938" data-name="Group 2938">
          <path id="Path_1497" data-name="Path 1497" d="M233.211,222.551c1.6-.921,2.864-.1,2.77,1.782l-.149,2.988,4.242-2.449c1.449-.837,1.762,1.1.784,2.462.991.284.7,1.971-.2,3.051.826.371.1,2.274-.91,3.064.66.272.093,2.313-1.069,2.983s-4.016,2.32-4.167,2.406l-2.635,1.522c-.9.518-1.629.1-1.632-.93l-.017-6.056,1.665-4.044a16.277,16.277,0,0,0,1.317-6.109Z" fill="#fff"/>
        </g>
      </g>
    </g>
    <g id="Group_2943" data-name="Group 2943">
      <g id="Group_2941" data-name="Group 2941">
        <path id="Path_1498" data-name="Path 1498" d="M356.253,114.761,329.42,130.154a5.292,5.292,0,0,0-2.631,4.543v19.525a5.173,5.173,0,0,0,7.911,4.259l4.663-2.665.421.683a.27.27,0,0,0,.069.062l0,.01.051.033.013.008c.768.508,2.117,1.232,2.421,1.388l-.008-.019a.287.287,0,0,0,.357-.176l1.716-4.867h0l17.127-9.787a5.238,5.238,0,0,0,2.639-4.547V119.018C364.166,115.24,358.6,113.412,356.253,114.761Z" fill="#f2634d"/>
        <path id="Path_1499" data-name="Path 1499" d="M334.084,133.332l0,0Z" fill="none"/>
        <path id="Path_1500" data-name="Path 1500" d="M339.784,156.5a.27.27,0,0,0,.069.062l0,.01.051.033.013.008c.768.508,2.117,1.232,2.421,1.388l-.008-.019a.274.274,0,0,1-.168-.12l-1.663-2.692.329-.188h0l-1.462.836Z" fill="#fff" opacity="0.2"/>
        <path id="Path_1501" data-name="Path 1501" d="M332.678,135.092a5.343,5.343,0,0,1,1.4-1.757l0,0a4.836,4.836,0,0,1,.635-.434L361.552,117.5a1.745,1.745,0,0,1,2.614,1.514c0-3.778-5.563-5.606-7.913-4.257L329.42,130.154a5.226,5.226,0,0,0-1.951,1.979Z" fill="#fff" opacity="0.4"/>
        <path id="Path_1502" data-name="Path 1502" d="M332.088,156.965V137.44a4.708,4.708,0,0,1,.041-.619,5.426,5.426,0,0,1,.549-1.729l-5.209-2.959a5.224,5.224,0,0,0-.68,2.564v19.525a5.173,5.173,0,0,0,7.911,4.259A1.746,1.746,0,0,1,332.088,156.965Z" fill="#fff" opacity="0.2"/>
      </g>
      <g id="Group_2942" data-name="Group 2942">
        <path id="Path_1503" data-name="Path 1503" d="M352.564,127.006a3.277,3.277,0,0,1,3.257-.33c1.808,1.022,1.818,4.371.021,7.475l-1.046,1.82L348.312,147.2l-6.534-3.716-1.053-.608c-1.808-1.022-1.818-4.372-.021-7.476a9.361,9.361,0,0,1,3.248-3.425,3.28,3.28,0,0,1,3.258-.331l1.059.6,1.046-1.811A9.35,9.35,0,0,1,352.564,127.006Z" fill="#fff"/>
      </g>
    </g>
    <g id="Group_2946" data-name="Group 2946">
      <g id="Group_2944" data-name="Group 2944">
        <path id="Path_1504" data-name="Path 1504" d="M317.179,197.269l-26.832,15.394a5.289,5.289,0,0,0-2.631,4.542V236.73a5.173,5.173,0,0,0,7.911,4.259l4.662-2.665.422.683a.253.253,0,0,0,.069.062l0,.01.051.033.013.008c.768.508,2.118,1.232,2.421,1.389l-.007-.02a.286.286,0,0,0,.356-.176l1.717-4.867h0l17.127-9.787a5.237,5.237,0,0,0,2.639-4.547V201.526C325.093,197.748,319.53,195.92,317.179,197.269Z" fill="#f2634d"/>
        <path id="Path_1505" data-name="Path 1505" d="M295.011,215.84l0,0Z" fill="none"/>
        <path id="Path_1506" data-name="Path 1506" d="M300.711,239.007a.253.253,0,0,0,.069.062l0,.01.051.033.013.008c.768.508,2.118,1.232,2.421,1.389l-.007-.02a.278.278,0,0,1-.169-.119l-1.662-2.693.329-.188h0l-1.463.835Z" fill="#fff" opacity="0.2"/>
        <path id="Path_1507" data-name="Path 1507" d="M293.605,217.6a5.354,5.354,0,0,1,1.4-1.757l0,0a4.872,4.872,0,0,1,.635-.434l26.832-15.394a1.746,1.746,0,0,1,2.615,1.514c0-3.778-5.563-5.606-7.914-4.257l-26.832,15.394a5.217,5.217,0,0,0-1.951,1.978Z" fill="#fff" opacity="0.4"/>
        <path id="Path_1508" data-name="Path 1508" d="M293.015,239.473V219.949a4.685,4.685,0,0,1,.041-.619,5.424,5.424,0,0,1,.549-1.73l-5.209-2.959a5.224,5.224,0,0,0-.68,2.564V236.73a5.173,5.173,0,0,0,7.911,4.259A1.746,1.746,0,0,1,293.015,239.473Z" fill="#fff" opacity="0.2"/>
      </g>
      <g id="Group_2945" data-name="Group 2945">
        <path id="Path_1509" data-name="Path 1509" d="M313.49,209.515a3.278,3.278,0,0,1,3.257-.331c1.809,1.022,1.818,4.372.022,7.475l-1.046,1.82-6.485,11.232-6.534-3.716-1.052-.608c-1.809-1.022-1.818-4.372-.022-7.475a9.35,9.35,0,0,1,3.249-3.426,3.278,3.278,0,0,1,3.257-.331l1.06.6,1.046-1.811A9.337,9.337,0,0,1,313.49,209.515Z" fill="#fff"/>
      </g>
    </g>
    <g id="Group_2952" data-name="Group 2952">
      <g id="Group_2947" data-name="Group 2947">
        <path id="Path_1510" data-name="Path 1510" d="M418.919,174.288l-26.832,15.394a5.292,5.292,0,0,0-2.631,4.543v19.524a5.172,5.172,0,0,0,7.91,4.259l4.663-2.664.422.683a.254.254,0,0,0,.069.062l0,.009.051.033.013.009c.768.508,2.118,1.232,2.421,1.388l-.007-.02a.285.285,0,0,0,.356-.175l1.717-4.868h0l17.127-9.786a5.24,5.24,0,0,0,2.639-4.548V178.546C426.833,174.768,421.27,172.94,418.919,174.288Z" fill="#f2634d"/>
        <path id="Path_1511" data-name="Path 1511" d="M396.75,192.86l0,0Z" fill="none"/>
        <path id="Path_1512" data-name="Path 1512" d="M402.451,216.027a.266.266,0,0,0,.068.062l0,.009.051.033.013.009c.768.508,2.117,1.232,2.421,1.388l-.007-.02a.271.271,0,0,1-.169-.119l-1.663-2.693.329-.188h0l-1.462.836Z" fill="#fff" opacity="0.2"/>
        <path id="Path_1513" data-name="Path 1513" d="M395.344,194.62a5.334,5.334,0,0,1,1.4-1.757l0,0a4.885,4.885,0,0,1,.636-.435l26.832-15.394a1.747,1.747,0,0,1,2.615,1.515c0-3.778-5.563-5.606-7.914-4.258l-26.832,15.394a5.212,5.212,0,0,0-1.951,1.979Z" fill="#fff" opacity="0.4"/>
        <path id="Path_1514" data-name="Path 1514" d="M394.755,216.493V196.968a4.7,4.7,0,0,1,.041-.619,5.435,5.435,0,0,1,.548-1.729l-5.208-2.959a5.219,5.219,0,0,0-.68,2.564v19.524a5.172,5.172,0,0,0,7.91,4.259A1.745,1.745,0,0,1,394.755,216.493Z" fill="#fff" opacity="0.2"/>
      </g>
      <g id="Group_2951" data-name="Group 2951">
        <g id="Group_2948" data-name="Group 2948">
          <path id="Path_1515" data-name="Path 1515" d="M408.528,196.992c.4-.234.733-.047.735.419v.213l.018,6.055,0,1.023a1.61,1.61,0,0,1-.73,1.269l-3.647,2.106c-.406.234-.738.045-.739-.421l-.021-7.291a1.614,1.614,0,0,1,.735-1.267Zm-1.368,8.787a1.7,1.7,0,0,0,.766-1.331c0-.489-.346-.685-.771-.439a1.692,1.692,0,0,0-.77,1.328c0,.489.35.687.775.442" fill="#ba68c8"/>
        </g>
        <g id="Group_2949" data-name="Group 2949" opacity="0.5">
          <path id="Path_1516" data-name="Path 1516" d="M408.528,196.992c.4-.234.733-.047.735.419v.213l.018,6.055,0,1.023a1.61,1.61,0,0,1-.73,1.269l-3.647,2.106c-.406.234-.738.045-.739-.421l-.021-7.291a1.614,1.614,0,0,1,.735-1.267Zm-1.368,8.787a1.7,1.7,0,0,0,.766-1.331c0-.489-.346-.685-.771-.439a1.692,1.692,0,0,0-.77,1.328c0,.489.35.687.775.442" fill="#fff"/>
        </g>
        <g id="Group_2950" data-name="Group 2950">
          <path id="Path_1517" data-name="Path 1517" d="M412.243,186.8c1.6-.921,2.864-.1,2.77,1.782l-.149,2.987,4.242-2.449c1.449-.836,1.763,1.1.784,2.462.991.285.7,1.972-.2,3.052.825.371.1,2.273-.911,3.064.66.272.093,2.312-1.068,2.983l-4.168,2.406-2.635,1.521c-.9.519-1.629.1-1.631-.93l-.018-6.055,1.666-4.044a16.293,16.293,0,0,0,1.316-6.109Z" fill="#fff"/>
        </g>
      </g>
    </g>
  </g>
</svg>
